<svg xmlns="http://www.w3.org/2000/svg" viewBox="0 0 12.848 24">
  <defs>
    <style>
      .cls-1 {
        fill: #fff;
      }
    </style>
  </defs>
  <g id="Group_83" data-name="Group 83" transform="translate(-373.151)">
    <g id="icon-arrow" transform="translate(373.151)">
      <path id="Path_204" data-name="Path 204" class="cls-1" d="M34.848,30.252a.849.849,0,0,1-1.2,0,.849.849,0,0,1,0-1.2L44.2,18.5,33.648,7.948a.849.849,0,0,1,1.2-1.2L46,17.9a.849.849,0,0,1,0,1.2Z" transform="translate(-33.4 -6.5)"/>
    </g>
  </g>
</svg>
